{
  "project_info": {
    "project_number": "214591135616",
    "project_id": "duckfood-266a6",
    "storage_bucket": "duckfood-266a6.appspot.com"
  },
  "client": [
    {
      "client_info": {
        "mobilesdk_app_id": "1:214591135616:android:8d8cde876994cb83e76b65",
        "android_client_info": {
          "package_name": "com.example.duckfood"
        }
      },
      "oauth_client": [
        {
          "client_id": "214591135616-adfkdi7crbq8rjphlqpaiqmnig2kjoas.apps.googleusercontent.com",
          "client_type": 3
        }
      ],
      "api_key": [
        {
          "current_key": "AIzaSyDLAHLYQbMR15AYqRqSsdXUR1DjGrqb9qc"
        }
      ],
      "services": {
        "appinvite_service": {
          "other_platform_oauth_client": [
            {
              "client_id": "214591135616-adfkdi7crbq8rjphlqpaiqmnig2kjoas.apps.googleusercontent.com",
              "client_type": 3
            }
          ]
        }
      }
    }
  ],
  "configuration_version": "1"
}